{
  "id": "854ed83d-805e-4785-a2cf-3a3286e6ec4d",
  "prevId": "5555c3af-960d-49f2-a0f0-81b95e6889e1",
  "version": "7",
  "dialect": "postgresql",
  "tables": {
    "public.media": {
      "name": "media",
      "schema": "",
      "columns": {
        "id": {
          "name": "id",
          "type": "text",
          "primaryKey": true,
          "notNull": true
        },
        "title": {
          "name": "title",
          "type": "text",
          "primaryKey": false,
          "notNull": false
        },
        "artist": {
          "name": "artist",
          "type": "json",
          "primaryKey": false,
          "notNull": true
        },
        "type": {
          "name": "type",
          "type": "text",
          "primaryKey": false,
          "notNull": true
        },
        "album": {
          "name": "album",
          "type": "json",
          "primaryKey": false,
          "notNull": true
        },
        "cover": {
          "name": "cover",
          "type": "json",
          "primaryKey": false,
          "notNull": false
        },
        "stream": {
          "name": "stream",
          "type": "json",
          "primaryKey": false,
          "notNull": true
        },
        "duration": {
          "name": "duration",
          "type": "real",
          "primaryKey": false,
          "notNull": true
        },
        "playCount": {
          "name": "playCount",
          "type": "integer",
          "primaryKey": false,
          "notNull": true
        },
        "genres": {
          "name": "genres",
          "type": "json",
          "primaryKey": false,
          "notNull": false
        },
        "track": {
          "name": "track",
          "type": "integer",
          "primaryKey": false,
          "notNull": false
        },
        "year": {
          "name": "year",
          "type": "integer",
          "primaryKey": false,
          "notNull": false
        },
        "searchable_text": {
          "name": "searchable_text",
          "type": "text",
          "primaryKey": false,
          "notNull": true,
          "default": "''"
        },
        "search_vector": {
          "name": "search_vector",
          "type": "text",
          "primaryKey": false,
          "notNull": false,
          "default": "to_tsvector('english', '')"
        },
        "createdAt": {
          "name": "createdAt",
          "type": "timestamp",
          "primaryKey": false,
          "notNull": true,
          "default": "now()"
        },
        "updatedAt": {
          "name": "updatedAt",
          "type": "timestamp",
          "primaryKey": false,
          "notNull": true,
          "default": "now()"
        }
      },
      "indexes": {},
      "foreignKeys": {},
      "compositePrimaryKeys": {},
      "uniqueConstraints": {}
    },
    "public.media_lyrics": {
      "name": "media_lyrics",
      "schema": "",
      "columns": {
        "id": {
          "name": "id",
          "type": "text",
          "primaryKey": true,
          "notNull": true
        },
        "mediaId": {
          "name": "mediaId",
          "type": "text",
          "primaryKey": false,
          "notNull": true
        },
        "lyrics": {
          "name": "lyrics",
          "type": "text",
          "primaryKey": false,
          "notNull": true
        },
        "createdAt": {
          "name": "createdAt",
          "type": "timestamp",
          "primaryKey": false,
          "notNull": true,
          "default": "now()"
        },
        "updatedAt": {
          "name": "updatedAt",
          "type": "timestamp",
          "primaryKey": false,
          "notNull": true,
          "default": "now()"
        }
      },
      "indexes": {},
      "foreignKeys": {
        "media_lyrics_mediaId_media_id_fk": {
          "name": "media_lyrics_mediaId_media_id_fk",
          "tableFrom": "media_lyrics",
          "tableTo": "media",
          "columnsFrom": [
            "mediaId"
          ],
          "columnsTo": [
            "id"
          ],
          "onDelete": "cascade",
          "onUpdate": "no action"
        }
      },
      "compositePrimaryKeys": {},
      "uniqueConstraints": {}
    },
    "public.peer": {
      "name": "peer",
      "schema": "",
      "columns": {
        "id": {
          "name": "id",
          "type": "text",
          "primaryKey": true,
          "notNull": true
        },
        "roomCode": {
          "name": "roomCode",
          "type": "text",
          "primaryKey": false,
          "notNull": true
        },
        "username": {
          "name": "username",
          "type": "text",
          "primaryKey": false,
          "notNull": true
        },
        "createdAt": {
          "name": "createdAt",
          "type": "timestamp",
          "primaryKey": false,
          "notNull": true,
          "default": "now()"
        },
        "updatedAt": {
          "name": "updatedAt",
          "type": "timestamp",
          "primaryKey": false,
          "notNull": true,
          "default": "now()"
        }
      },
      "indexes": {},
      "foreignKeys": {
        "peer_roomCode_room_id_fk": {
          "name": "peer_roomCode_room_id_fk",
          "tableFrom": "peer",
          "tableTo": "room",
          "columnsFrom": [
            "roomCode"
          ],
          "columnsTo": [
            "id"
          ],
          "onDelete": "cascade",
          "onUpdate": "no action"
        }
      },
      "compositePrimaryKeys": {},
      "uniqueConstraints": {}
    },
    "public.playlist": {
      "name": "playlist",
      "schema": "",
      "columns": {
        "id": {
          "name": "id",
          "type": "text",
          "primaryKey": true,
          "notNull": true
        },
        "name": {
          "name": "name",
          "type": "text",
          "primaryKey": false,
          "notNull": true
        },
        "trackIds": {
          "name": "trackIds",
          "type": "json",
          "primaryKey": false,
          "notNull": true
        },
        "randomTrackIds": {
          "name": "randomTrackIds",
          "type": "json",
          "primaryKey": false,
          "notNull": true
        },
        "currentPlaying": {
          "name": "currentPlaying",
          "type": "text",
          "primaryKey": false,
          "notNull": false
        },
        "repeat": {
          "name": "repeat",
          "type": "boolean",
          "primaryKey": false,
          "notNull": false
        },
        "shuffle": {
          "name": "shuffle",
          "type": "boolean",
          "primaryKey": false,
          "notNull": false
        },
        "createdAt": {
          "name": "createdAt",
          "type": "timestamp",
          "primaryKey": false,
          "notNull": true,
          "default": "now()"
        },
        "updatedAt": {
          "name": "updatedAt",
          "type": "timestamp",
          "primaryKey": false,
          "notNull": true,
          "default": "now()"
        }
      },
      "indexes": {},
      "foreignKeys": {},
      "compositePrimaryKeys": {},
      "uniqueConstraints": {}
    },
    "public.queue": {
      "name": "queue",
      "schema": "",
      "columns": {
        "id": {
          "name": "id",
          "type": "text",
          "primaryKey": true,
          "notNull": true
        },
        "trackIds": {
          "name": "trackIds",
          "type": "json",
          "primaryKey": false,
          "notNull": true
        },
        "randomTrackIds": {
          "name": "randomTrackIds",
          "type": "json",
          "primaryKey": false,
          "notNull": true
        },
        "currentPlaying": {
          "name": "currentPlaying",
          "type": "text",
          "primaryKey": false,
          "notNull": false
        },
        "repeat": {
          "name": "repeat",
          "type": "boolean",
          "primaryKey": false,
          "notNull": false
        },
        "shuffle": {
          "name": "shuffle",
          "type": "boolean",
          "primaryKey": false,
          "notNull": false
        },
        "nextSongId": {
          "name": "nextSongId",
          "type": "text",
          "primaryKey": false,
          "notNull": false
        },
        "prevSongId": {
          "name": "prevSongId",
          "type": "text",
          "primaryKey": false,
          "notNull": false
        },
        "createdAt": {
          "name": "createdAt",
          "type": "timestamp",
          "primaryKey": false,
          "notNull": true,
          "default": "now()"
        },
        "updatedAt": {
          "name": "updatedAt",
          "type": "timestamp",
          "primaryKey": false,
          "notNull": true,
          "default": "now()"
        }
      },
      "indexes": {},
      "foreignKeys": {},
      "compositePrimaryKeys": {},
      "uniqueConstraints": {}
    },
    "public.room": {
      "name": "room",
      "schema": "",
      "columns": {
        "id": {
          "name": "id",
          "type": "text",
          "primaryKey": true,
          "notNull": true
        },
        "createdAt": {
          "name": "createdAt",
          "type": "timestamp",
          "primaryKey": false,
          "notNull": true,
          "default": "now()"
        },
        "updatedAt": {
          "name": "updatedAt",
          "type": "timestamp",
          "primaryKey": false,
          "notNull": true,
          "default": "now()"
        }
      },
      "indexes": {},
      "foreignKeys": {},
      "compositePrimaryKeys": {},
      "uniqueConstraints": {}
    },
    "public.settings": {
      "name": "settings",
      "schema": "",
      "columns": {
        "id": {
          "name": "id",
          "type": "text",
          "primaryKey": true,
          "notNull": true
        },
        "settings": {
          "name": "settings",
          "type": "json",
          "primaryKey": false,
          "notNull": true
        },
        "createdAt": {
          "name": "createdAt",
          "type": "timestamp",
          "primaryKey": false,
          "notNull": true,
          "default": "now()"
        },
        "updatedAt": {
          "name": "updatedAt",
          "type": "timestamp",
          "primaryKey": false,
          "notNull": true,
          "default": "now()"
        }
      },
      "indexes": {},
      "foreignKeys": {},
      "compositePrimaryKeys": {},
      "uniqueConstraints": {}
    },
    "public.smart_playlist": {
      "name": "smart_playlist",
      "schema": "",
      "columns": {
        "id": {
          "name": "id",
          "type": "text",
          "primaryKey": true,
          "notNull": true
        },
        "name": {
          "name": "name",
          "type": "text",
          "primaryKey": false,
          "notNull": true
        },
        "filters": {
          "name": "filters",
          "type": "json",
          "primaryKey": false,
          "notNull": true
        },
        "createdAt": {
          "name": "createdAt",
          "type": "timestamp",
          "primaryKey": false,
          "notNull": true,
          "default": "now()"
        },
        "updatedAt": {
          "name": "updatedAt",
          "type": "timestamp",
          "primaryKey": false,
          "notNull": true,
          "default": "now()"
        }
      },
      "indexes": {},
      "foreignKeys": {},
      "compositePrimaryKeys": {},
      "uniqueConstraints": {}
    }
  },
  "enums": {},
  "schemas": {},
  "sequences": {},
  "_meta": {
    "columns": {},
    "schemas": {},
    "tables": {}
  }
}